﻿-d:DEBUG
-d:TRACE
-d:NETSTANDARD1_6
-nowarn:CS1701
-nowarn:CS1702
-nowarn:CS1705
-t:library
-debug:portable
-nostdlib
-nologo
"/Users/simen/1617-WDAD4-GR12-copy/dotnet/src/Accomo.Models/obj/Debug/netstandard1.6/dotnet-compile.assemblyinfo.cs"
-out:"/Users/simen/1617-WDAD4-GR12-copy/dotnet/src/Accomo.Models/bin/Debug/netstandard1.6/Accomo.Models.dll"
-r:"/Users/simen/.nuget/packages/AspNet.Security.Oauth.Validation/1.0.0-alpha2-final/lib/netstandard1.3/AspNet.Security.OAuth.Validation.dll"
-r:"/Users/simen/.nuget/packages/AspNet.Security.OpenIdConnect.Extensions/1.0.1/lib/netstandard1.4/AspNet.Security.OpenIdConnect.Extensions.dll"
-r:"/Users/simen/.nuget/packages/AspNet.Security.OpenIdConnect.Primitives/1.0.1/lib/netstandard1.0/AspNet.Security.OpenIdConnect.Primitives.dll"
-r:"/Users/simen/.nuget/packages/AspNet.Security.OpenIdConnect.Server/1.0.1/lib/netstandard1.6/AspNet.Security.OpenIdConnect.Server.dll"
-r:"/Users/simen/.nuget/packages/CryptoHelper/2.0.0/lib/netstandard1.3/CryptoHelper.dll"
-r:"/Users/simen/.nuget/packages/Microsoft.AspNetCore.Antiforgery/1.0.0/lib/netstandard1.3/Microsoft.AspNetCore.Antiforgery.dll"
-r:"/Users/simen/.nuget/packages/Microsoft.AspNetCore.Authentication/1.1.0/lib/netstandard1.3/Microsoft.AspNetCore.Authentication.dll"
-r:"/Users/simen/.nuget/packages/Microsoft.AspNetCore.Authentication.Cookies/1.1.0/lib/netstandard1.3/Microsoft.AspNetCore.Authentication.Cookies.dll"
-r:"/Users/simen/.nuget/packages/Microsoft.AspNetCore.Authorization/1.0.0/lib/netstandard1.3/Microsoft.AspNetCore.Authorization.dll"
-r:"/Users/simen/.nuget/packages/Microsoft.AspNetCore.Cors/1.0.0/lib/netstandard1.3/Microsoft.AspNetCore.Cors.dll"
-r:"/Users/simen/.nuget/packages/Microsoft.AspNetCore.Cryptography.Internal/1.1.0/lib/netstandard1.3/Microsoft.AspNetCore.Cryptography.Internal.dll"
-r:"/Users/simen/.nuget/packages/Microsoft.AspNetCore.Cryptography.KeyDerivation/1.1.0/lib/netstandard1.3/Microsoft.AspNetCore.Cryptography.KeyDerivation.dll"
-r:"/Users/simen/.nuget/packages/Microsoft.AspNetCore.DataProtection/1.1.0/lib/netstandard1.3/Microsoft.AspNetCore.DataProtection.dll"
-r:"/Users/simen/.nuget/packages/Microsoft.AspNetCore.DataProtection.Abstractions/1.1.0/lib/netstandard1.3/Microsoft.AspNetCore.DataProtection.Abstractions.dll"
-r:"/Users/simen/.nuget/packages/Microsoft.AspNetCore.Diagnostics.Abstractions/1.0.0/lib/netstandard1.0/Microsoft.AspNetCore.Diagnostics.Abstractions.dll"
-r:"/Users/simen/.nuget/packages/Microsoft.AspNetCore.Hosting.Abstractions/1.1.0/lib/netstandard1.3/Microsoft.AspNetCore.Hosting.Abstractions.dll"
-r:"/Users/simen/.nuget/packages/Microsoft.AspNetCore.Hosting.Server.Abstractions/1.1.0/lib/netstandard1.3/Microsoft.AspNetCore.Hosting.Server.Abstractions.dll"
-r:"/Users/simen/.nuget/packages/Microsoft.AspNetCore.Html.Abstractions/1.0.0/lib/netstandard1.0/Microsoft.AspNetCore.Html.Abstractions.dll"
-r:"/Users/simen/.nuget/packages/Microsoft.AspNetCore.Http/1.1.0/lib/netstandard1.3/Microsoft.AspNetCore.Http.dll"
-r:"/Users/simen/.nuget/packages/Microsoft.AspNetCore.Http.Abstractions/1.1.0/lib/netstandard1.3/Microsoft.AspNetCore.Http.Abstractions.dll"
-r:"/Users/simen/.nuget/packages/Microsoft.AspNetCore.Http.Extensions/1.1.0/lib/netstandard1.3/Microsoft.AspNetCore.Http.Extensions.dll"
-r:"/Users/simen/.nuget/packages/Microsoft.AspNetCore.Http.Features/1.1.0/lib/netstandard1.3/Microsoft.AspNetCore.Http.Features.dll"
-r:"/Users/simen/.nuget/packages/Microsoft.AspNetCore.Identity/1.1.0/lib/netstandard1.3/Microsoft.AspNetCore.Identity.dll"
-r:"/Users/simen/.nuget/packages/Microsoft.AspNetCore.Identity.EntityFrameworkCore/1.1.0/lib/netstandard1.3/Microsoft.AspNetCore.Identity.EntityFrameworkCore.dll"
-r:"/Users/simen/.nuget/packages/Microsoft.AspNetCore.JsonPatch/1.0.0/lib/netstandard1.1/Microsoft.AspNetCore.JsonPatch.dll"
-r:"/Users/simen/.nuget/packages/Microsoft.AspNetCore.Localization/1.0.0/lib/netstandard1.3/Microsoft.AspNetCore.Localization.dll"
-r:"/Users/simen/.nuget/packages/Microsoft.AspNetCore.Mvc/1.0.0/lib/netstandard1.6/Microsoft.AspNetCore.Mvc.dll"
-r:"/Users/simen/.nuget/packages/Microsoft.AspNetCore.Mvc.Abstractions/1.0.0/lib/netstandard1.3/Microsoft.AspNetCore.Mvc.Abstractions.dll"
-r:"/Users/simen/.nuget/packages/Microsoft.AspNetCore.Mvc.ApiExplorer/1.0.0/lib/netstandard1.6/Microsoft.AspNetCore.Mvc.ApiExplorer.dll"
-r:"/Users/simen/.nuget/packages/Microsoft.AspNetCore.Mvc.Core/1.0.0/lib/netstandard1.6/Microsoft.AspNetCore.Mvc.Core.dll"
-r:"/Users/simen/.nuget/packages/Microsoft.AspNetCore.Mvc.Cors/1.0.0/lib/netstandard1.6/Microsoft.AspNetCore.Mvc.Cors.dll"
-r:"/Users/simen/.nuget/packages/Microsoft.AspNetCore.Mvc.DataAnnotations/1.0.0/lib/netstandard1.6/Microsoft.AspNetCore.Mvc.DataAnnotations.dll"
-r:"/Users/simen/.nuget/packages/Microsoft.AspNetCore.Mvc.Formatters.Json/1.0.0/lib/netstandard1.6/Microsoft.AspNetCore.Mvc.Formatters.Json.dll"
-r:"/Users/simen/.nuget/packages/Microsoft.AspNetCore.Mvc.Localization/1.0.0/lib/netstandard1.6/Microsoft.AspNetCore.Mvc.Localization.dll"
-r:"/Users/simen/.nuget/packages/Microsoft.AspNetCore.Mvc.Razor/1.0.0/lib/netstandard1.6/Microsoft.AspNetCore.Mvc.Razor.dll"
-r:"/Users/simen/.nuget/packages/Microsoft.AspNetCore.Mvc.Razor.Host/1.0.0/lib/netstandard1.6/Microsoft.AspNetCore.Mvc.Razor.Host.dll"
-r:"/Users/simen/.nuget/packages/Microsoft.AspNetCore.Mvc.TagHelpers/1.0.0/lib/netstandard1.6/Microsoft.AspNetCore.Mvc.TagHelpers.dll"
-r:"/Users/simen/.nuget/packages/Microsoft.AspNetCore.Mvc.ViewFeatures/1.0.0/lib/netstandard1.6/Microsoft.AspNetCore.Mvc.ViewFeatures.dll"
-r:"/Users/simen/.nuget/packages/Microsoft.AspNetCore.Razor/1.0.0/lib/netstandard1.3/Microsoft.AspNetCore.Razor.dll"
-r:"/Users/simen/.nuget/packages/Microsoft.AspNetCore.Razor.Runtime/1.0.0/lib/netstandard1.5/Microsoft.AspNetCore.Razor.Runtime.dll"
-r:"/Users/simen/.nuget/packages/Microsoft.AspNetCore.Routing/1.0.0/lib/netstandard1.3/Microsoft.AspNetCore.Routing.dll"
-r:"/Users/simen/.nuget/packages/Microsoft.AspNetCore.Routing.Abstractions/1.0.0/lib/netstandard1.3/Microsoft.AspNetCore.Routing.Abstractions.dll"
-r:"/Users/simen/.nuget/packages/Microsoft.AspNetCore.WebUtilities/1.1.0/lib/netstandard1.3/Microsoft.AspNetCore.WebUtilities.dll"
-r:"/Users/simen/.nuget/packages/Microsoft.CodeAnalysis.Common/1.3.0/lib/netstandard1.3/Microsoft.CodeAnalysis.dll"
-r:"/Users/simen/.nuget/packages/Microsoft.CodeAnalysis.CSharp/1.3.0/lib/netstandard1.3/Microsoft.CodeAnalysis.CSharp.dll"
-r:"/Users/simen/.nuget/packages/Microsoft.CSharp/4.3.0/ref/netstandard1.0/Microsoft.CSharp.dll"
-r:"/Users/simen/.nuget/packages/Microsoft.DotNet.InternalAbstractions/1.0.0/lib/netstandard1.3/Microsoft.DotNet.InternalAbstractions.dll"
-r:"/Users/simen/.nuget/packages/Microsoft.EntityFrameworkCore/1.1.0/lib/netstandard1.3/Microsoft.EntityFrameworkCore.dll"
-r:"/Users/simen/.nuget/packages/Microsoft.EntityFrameworkCore.Relational/1.1.0/lib/netstandard1.3/Microsoft.EntityFrameworkCore.Relational.dll"
-r:"/Users/simen/.nuget/packages/Microsoft.Extensions.Caching.Abstractions/1.1.0/lib/netstandard1.0/Microsoft.Extensions.Caching.Abstractions.dll"
-r:"/Users/simen/.nuget/packages/Microsoft.Extensions.Caching.Memory/1.1.0/lib/netstandard1.3/Microsoft.Extensions.Caching.Memory.dll"
-r:"/Users/simen/.nuget/packages/Microsoft.Extensions.Configuration.Abstractions/1.1.0/lib/netstandard1.0/Microsoft.Extensions.Configuration.Abstractions.dll"
-r:"/Users/simen/.nuget/packages/Microsoft.Extensions.DependencyInjection/1.1.0/lib/netstandard1.1/Microsoft.Extensions.DependencyInjection.dll"
-r:"/Users/simen/.nuget/packages/Microsoft.Extensions.DependencyInjection.Abstractions/1.1.0/lib/netstandard1.0/Microsoft.Extensions.DependencyInjection.Abstractions.dll"
-r:"/Users/simen/.nuget/packages/Microsoft.Extensions.DependencyModel/1.0.0/lib/netstandard1.6/Microsoft.Extensions.DependencyModel.dll"
-r:"/Users/simen/.nuget/packages/Microsoft.Extensions.FileProviders.Abstractions/1.1.0/lib/netstandard1.0/Microsoft.Extensions.FileProviders.Abstractions.dll"
-r:"/Users/simen/.nuget/packages/Microsoft.Extensions.FileProviders.Composite/1.0.0/lib/netstandard1.0/Microsoft.Extensions.FileProviders.Composite.dll"
-r:"/Users/simen/.nuget/packages/Microsoft.Extensions.FileProviders.Physical/1.0.0/lib/netstandard1.3/Microsoft.Extensions.FileProviders.Physical.dll"
-r:"/Users/simen/.nuget/packages/Microsoft.Extensions.FileSystemGlobbing/1.0.0/lib/netstandard1.3/Microsoft.Extensions.FileSystemGlobbing.dll"
-r:"/Users/simen/.nuget/packages/Microsoft.Extensions.Globalization.CultureInfoCache/1.0.0/lib/netstandard1.1/Microsoft.Extensions.Globalization.CultureInfoCache.dll"
-r:"/Users/simen/.nuget/packages/Microsoft.Extensions.Localization/1.0.0/lib/netstandard1.3/Microsoft.Extensions.Localization.dll"
-r:"/Users/simen/.nuget/packages/Microsoft.Extensions.Localization.Abstractions/1.0.0/lib/netstandard1.0/Microsoft.Extensions.Localization.Abstractions.dll"
-r:"/Users/simen/.nuget/packages/Microsoft.Extensions.Logging/1.1.0/lib/netstandard1.1/Microsoft.Extensions.Logging.dll"
-r:"/Users/simen/.nuget/packages/Microsoft.Extensions.Logging.Abstractions/1.1.0/lib/netstandard1.1/Microsoft.Extensions.Logging.Abstractions.dll"
-r:"/Users/simen/.nuget/packages/Microsoft.Extensions.ObjectPool/1.1.0/lib/netstandard1.3/Microsoft.Extensions.ObjectPool.dll"
-r:"/Users/simen/.nuget/packages/Microsoft.Extensions.Options/1.1.0/lib/netstandard1.0/Microsoft.Extensions.Options.dll"
-r:"/Users/simen/.nuget/packages/Microsoft.Extensions.PlatformAbstractions/1.0.0/lib/netstandard1.3/Microsoft.Extensions.PlatformAbstractions.dll"
-r:"/Users/simen/.nuget/packages/Microsoft.Extensions.Primitives/1.1.0/lib/netstandard1.0/Microsoft.Extensions.Primitives.dll"
-r:"/Users/simen/.nuget/packages/Microsoft.Extensions.WebEncoders/1.1.0/lib/netstandard1.0/Microsoft.Extensions.WebEncoders.dll"
-r:"/Users/simen/.nuget/packages/Microsoft.IdentityModel.Logging/1.0.0/lib/netstandard1.4/Microsoft.IdentityModel.Logging.dll"
-r:"/Users/simen/.nuget/packages/Microsoft.IdentityModel.Protocols/2.0.0/lib/netstandard1.4/Microsoft.IdentityModel.Protocols.dll"
-r:"/Users/simen/.nuget/packages/Microsoft.IdentityModel.Protocols.OpenIdConnect/2.0.0/lib/netstandard1.4/Microsoft.IdentityModel.Protocols.OpenIdConnect.dll"
-r:"/Users/simen/.nuget/packages/Microsoft.IdentityModel.Tokens/5.0.0/lib/netstandard1.4/Microsoft.IdentityModel.Tokens.dll"
-r:"/Users/simen/.nuget/packages/Microsoft.Net.Http.Headers/1.1.0/lib/netstandard1.1/Microsoft.Net.Http.Headers.dll"
-r:"/Users/simen/.nuget/packages/Microsoft.Win32.Primitives/4.3.0/ref/netstandard1.3/Microsoft.Win32.Primitives.dll"
-r:"/Users/simen/.nuget/packages/Microsoft.Win32.Registry/4.3.0/ref/netstandard1.3/Microsoft.Win32.Registry.dll"
-r:"/Users/simen/.nuget/packages/Newtonsoft.Json/9.0.1/lib/netstandard1.0/Newtonsoft.Json.dll"
-r:"/Users/simen/.nuget/packages/OpenIddict/1.0.0-beta2-0638/lib/netstandard1.4/OpenIddict.dll"
-r:"/Users/simen/.nuget/packages/OpenIddict.Core/1.0.0-beta2-0638/lib/netstandard1.3/OpenIddict.Core.dll"
-r:"/Users/simen/.nuget/packages/OpenIddict.Models/1.0.0-beta2-0638/lib/netstandard1.0/OpenIddict.Models.dll"
-r:"/Users/simen/.nuget/packages/Remotion.Linq/2.1.1/lib/netstandard1.0/Remotion.Linq.dll"
-r:"/Users/simen/.nuget/packages/System.AppContext/4.3.0/ref/netstandard1.6/System.AppContext.dll"
-r:"/Users/simen/.nuget/packages/System.Buffers/4.3.0/lib/netstandard1.1/System.Buffers.dll"
-r:"/Users/simen/.nuget/packages/System.Collections/4.3.0/ref/netstandard1.3/System.Collections.dll"
-r:"/Users/simen/.nuget/packages/System.Collections.Concurrent/4.3.0/ref/netstandard1.3/System.Collections.Concurrent.dll"
-r:"/Users/simen/.nuget/packages/System.Collections.Immutable/1.3.0/lib/netstandard1.0/System.Collections.Immutable.dll"
-r:"/Users/simen/.nuget/packages/System.Collections.NonGeneric/4.3.0/ref/netstandard1.3/System.Collections.NonGeneric.dll"
-r:"/Users/simen/.nuget/packages/System.Collections.Specialized/4.3.0/ref/netstandard1.3/System.Collections.Specialized.dll"
-r:"/Users/simen/.nuget/packages/System.ComponentModel/4.3.0/ref/netstandard1.0/System.ComponentModel.dll"
-r:"/Users/simen/.nuget/packages/System.ComponentModel.Annotations/4.3.0/ref/netstandard1.4/System.ComponentModel.Annotations.dll"
-r:"/Users/simen/.nuget/packages/System.ComponentModel.Primitives/4.3.0/ref/netstandard1.0/System.ComponentModel.Primitives.dll"
-r:"/Users/simen/.nuget/packages/System.ComponentModel.TypeConverter/4.3.0/ref/netstandard1.5/System.ComponentModel.TypeConverter.dll"
-r:"/Users/simen/.nuget/packages/System.Console/4.3.0/ref/netstandard1.3/System.Console.dll"
-r:"/Users/simen/.nuget/packages/System.Data.Common/4.3.0/ref/netstandard1.2/System.Data.Common.dll"
-r:"/Users/simen/.nuget/packages/System.Diagnostics.Contracts/4.3.0/ref/netstandard1.0/System.Diagnostics.Contracts.dll"
-r:"/Users/simen/.nuget/packages/System.Diagnostics.Debug/4.3.0/ref/netstandard1.3/System.Diagnostics.Debug.dll"
-r:"/Users/simen/.nuget/packages/System.Diagnostics.DiagnosticSource/4.3.0/lib/netstandard1.3/System.Diagnostics.DiagnosticSource.dll"
-r:"/Users/simen/.nuget/packages/System.Diagnostics.Tools/4.3.0/ref/netstandard1.0/System.Diagnostics.Tools.dll"
-r:"/Users/simen/.nuget/packages/System.Diagnostics.Tracing/4.3.0/ref/netstandard1.5/System.Diagnostics.Tracing.dll"
-r:"/Users/simen/.nuget/packages/System.Dynamic.Runtime/4.3.0/ref/netstandard1.3/System.Dynamic.Runtime.dll"
-r:"/Users/simen/.nuget/packages/System.Globalization/4.3.0/ref/netstandard1.3/System.Globalization.dll"
-r:"/Users/simen/.nuget/packages/System.Globalization.Calendars/4.3.0/ref/netstandard1.3/System.Globalization.Calendars.dll"
-r:"/Users/simen/.nuget/packages/System.Globalization.Extensions/4.3.0/ref/netstandard1.3/System.Globalization.Extensions.dll"
-r:"/Users/simen/.nuget/packages/System.IdentityModel.Tokens.Jwt/5.0.0/lib/netstandard1.4/System.IdentityModel.Tokens.Jwt.dll"
-r:"/Users/simen/.nuget/packages/System.Interactive.Async/3.0.0/lib/netstandard1.0/System.Interactive.Async.dll"
-r:"/Users/simen/.nuget/packages/System.IO/4.3.0/ref/netstandard1.5/System.IO.dll"
-r:"/Users/simen/.nuget/packages/System.IO.Compression/4.3.0/ref/netstandard1.3/System.IO.Compression.dll"
-r:"/Users/simen/.nuget/packages/System.IO.Compression.ZipFile/4.3.0/ref/netstandard1.3/System.IO.Compression.ZipFile.dll"
-r:"/Users/simen/.nuget/packages/System.IO.FileSystem/4.3.0/ref/netstandard1.3/System.IO.FileSystem.dll"
-r:"/Users/simen/.nuget/packages/System.IO.FileSystem.Primitives/4.3.0/ref/netstandard1.3/System.IO.FileSystem.Primitives.dll"
-r:"/Users/simen/.nuget/packages/System.IO.FileSystem.Watcher/4.0.0/ref/netstandard1.3/System.IO.FileSystem.Watcher.dll"
-r:"/Users/simen/.nuget/packages/System.Linq/4.3.0/ref/netstandard1.6/System.Linq.dll"
-r:"/Users/simen/.nuget/packages/System.Linq.Expressions/4.3.0/ref/netstandard1.6/System.Linq.Expressions.dll"
-r:"/Users/simen/.nuget/packages/System.Linq.Queryable/4.3.0/ref/netstandard1.0/System.Linq.Queryable.dll"
-r:"/Users/simen/.nuget/packages/System.Net.Http/4.3.0/ref/netstandard1.3/System.Net.Http.dll"
-r:"/Users/simen/.nuget/packages/System.Net.Primitives/4.3.0/ref/netstandard1.3/System.Net.Primitives.dll"
-r:"/Users/simen/.nuget/packages/System.Net.Sockets/4.3.0/ref/netstandard1.3/System.Net.Sockets.dll"
-r:"/Users/simen/.nuget/packages/System.Net.WebSockets/4.3.0/ref/netstandard1.3/System.Net.WebSockets.dll"
-r:"/Users/simen/.nuget/packages/System.ObjectModel/4.3.0/ref/netstandard1.3/System.ObjectModel.dll"
-r:"/Users/simen/.nuget/packages/System.Reflection/4.3.0/ref/netstandard1.5/System.Reflection.dll"
-r:"/Users/simen/.nuget/packages/System.Reflection.Extensions/4.3.0/ref/netstandard1.0/System.Reflection.Extensions.dll"
-r:"/Users/simen/.nuget/packages/System.Reflection.Metadata/1.3.0/lib/netstandard1.1/System.Reflection.Metadata.dll"
-r:"/Users/simen/.nuget/packages/System.Reflection.Primitives/4.3.0/ref/netstandard1.0/System.Reflection.Primitives.dll"
-r:"/Users/simen/.nuget/packages/System.Reflection.TypeExtensions/4.3.0/ref/netstandard1.5/System.Reflection.TypeExtensions.dll"
-r:"/Users/simen/.nuget/packages/System.Resources.Reader/4.0.0/lib/netstandard1.0/System.Resources.Reader.dll"
-r:"/Users/simen/.nuget/packages/System.Resources.ResourceManager/4.3.0/ref/netstandard1.0/System.Resources.ResourceManager.dll"
-r:"/Users/simen/.nuget/packages/System.Runtime/4.3.0/ref/netstandard1.5/System.Runtime.dll"
-r:"/Users/simen/.nuget/packages/System.Runtime.CompilerServices.Unsafe/4.3.0/lib/netstandard1.0/System.Runtime.CompilerServices.Unsafe.dll"
-r:"/Users/simen/.nuget/packages/System.Runtime.Extensions/4.3.0/ref/netstandard1.5/System.Runtime.Extensions.dll"
-r:"/Users/simen/.nuget/packages/System.Runtime.Handles/4.3.0/ref/netstandard1.3/System.Runtime.Handles.dll"
-r:"/Users/simen/.nuget/packages/System.Runtime.InteropServices/4.3.0/ref/netstandard1.5/System.Runtime.InteropServices.dll"
-r:"/Users/simen/.nuget/packages/System.Runtime.InteropServices.RuntimeInformation/4.3.0/ref/netstandard1.1/System.Runtime.InteropServices.RuntimeInformation.dll"
-r:"/Users/simen/.nuget/packages/System.Runtime.Loader/4.0.0/ref/netstandard1.5/System.Runtime.Loader.dll"
-r:"/Users/simen/.nuget/packages/System.Runtime.Numerics/4.3.0/ref/netstandard1.1/System.Runtime.Numerics.dll"
-r:"/Users/simen/.nuget/packages/System.Runtime.Serialization.Primitives/4.1.1/ref/netstandard1.3/System.Runtime.Serialization.Primitives.dll"
-r:"/Users/simen/.nuget/packages/System.Security.Claims/4.3.0/ref/netstandard1.3/System.Security.Claims.dll"
-r:"/Users/simen/.nuget/packages/System.Security.Cryptography.Algorithms/4.3.0/ref/netstandard1.6/System.Security.Cryptography.Algorithms.dll"
-r:"/Users/simen/.nuget/packages/System.Security.Cryptography.Cng/4.3.0/ref/netstandard1.6/System.Security.Cryptography.Cng.dll"
-r:"/Users/simen/.nuget/packages/System.Security.Cryptography.Csp/4.3.0/ref/netstandard1.3/System.Security.Cryptography.Csp.dll"
-r:"/Users/simen/.nuget/packages/System.Security.Cryptography.Encoding/4.3.0/ref/netstandard1.3/System.Security.Cryptography.Encoding.dll"
-r:"/Users/simen/.nuget/packages/System.Security.Cryptography.Primitives/4.3.0/ref/netstandard1.3/System.Security.Cryptography.Primitives.dll"
-r:"/Users/simen/.nuget/packages/System.Security.Cryptography.X509Certificates/4.3.0/ref/netstandard1.4/System.Security.Cryptography.X509Certificates.dll"
-r:"/Users/simen/.nuget/packages/System.Security.Principal/4.3.0/ref/netstandard1.0/System.Security.Principal.dll"
-r:"/Users/simen/.nuget/packages/System.Security.Principal.Windows/4.3.0/ref/netstandard1.3/System.Security.Principal.Windows.dll"
-r:"/Users/simen/.nuget/packages/System.Text.Encoding/4.3.0/ref/netstandard1.3/System.Text.Encoding.dll"
-r:"/Users/simen/.nuget/packages/System.Text.Encoding.Extensions/4.3.0/ref/netstandard1.3/System.Text.Encoding.Extensions.dll"
-r:"/Users/simen/.nuget/packages/System.Text.Encodings.Web/4.3.0/lib/netstandard1.0/System.Text.Encodings.Web.dll"
-r:"/Users/simen/.nuget/packages/System.Text.RegularExpressions/4.3.0/ref/netstandard1.6/System.Text.RegularExpressions.dll"
-r:"/Users/simen/.nuget/packages/System.Threading/4.3.0/ref/netstandard1.3/System.Threading.dll"
-r:"/Users/simen/.nuget/packages/System.Threading.Tasks/4.3.0/ref/netstandard1.3/System.Threading.Tasks.dll"
-r:"/Users/simen/.nuget/packages/System.Threading.Tasks.Parallel/4.0.1/ref/netstandard1.1/System.Threading.Tasks.Parallel.dll"
-r:"/Users/simen/.nuget/packages/System.Threading.Thread/4.0.0/ref/netstandard1.3/System.Threading.Thread.dll"
-r:"/Users/simen/.nuget/packages/System.Threading.Timer/4.3.0/ref/netstandard1.2/System.Threading.Timer.dll"
-r:"/Users/simen/.nuget/packages/System.Xml.ReaderWriter/4.3.0/ref/netstandard1.3/System.Xml.ReaderWriter.dll"
-r:"/Users/simen/.nuget/packages/System.Xml.XDocument/4.3.0/ref/netstandard1.3/System.Xml.XDocument.dll"
"/Users/simen/1617-WDAD4-GR12-copy/dotnet/src/Accomo.Models/Accomodatie.cs"
"/Users/simen/1617-WDAD4-GR12-copy/dotnet/src/Accomo.Models/AccomodatieDetails.cs"
"/Users/simen/1617-WDAD4-GR12-copy/dotnet/src/Accomo.Models/AccomodatieHuisregel.cs"
"/Users/simen/1617-WDAD4-GR12-copy/dotnet/src/Accomo.Models/AccomodatieLocatie.cs"
"/Users/simen/1617-WDAD4-GR12-copy/dotnet/src/Accomo.Models/AccomodatieMedia.cs"
"/Users/simen/1617-WDAD4-GR12-copy/dotnet/src/Accomo.Models/AccomodatiePrijs.cs"
"/Users/simen/1617-WDAD4-GR12-copy/dotnet/src/Accomo.Models/AccomodatieReview.cs"
"/Users/simen/1617-WDAD4-GR12-copy/dotnet/src/Accomo.Models/AccomodatieScore.cs"
"/Users/simen/1617-WDAD4-GR12-copy/dotnet/src/Accomo.Models/AccomodatieType.cs"
"/Users/simen/1617-WDAD4-GR12-copy/dotnet/src/Accomo.Models/AccomodatieVeiligheidsvoorziening.cs"
"/Users/simen/1617-WDAD4-GR12-copy/dotnet/src/Accomo.Models/AccomodatieVoorzieningType.cs"
"/Users/simen/1617-WDAD4-GR12-copy/dotnet/src/Accomo.Models/AccomodatieWishlist.cs"
"/Users/simen/1617-WDAD4-GR12-copy/dotnet/src/Accomo.Models/BaseEntity.cs"
"/Users/simen/1617-WDAD4-GR12-copy/dotnet/src/Accomo.Models/BedType.cs"
"/Users/simen/1617-WDAD4-GR12-copy/dotnet/src/Accomo.Models/BedTypeAccomodatie.cs"
"/Users/simen/1617-WDAD4-GR12-copy/dotnet/src/Accomo.Models/Boeking.cs"
"/Users/simen/1617-WDAD4-GR12-copy/dotnet/src/Accomo.Models/categorie.cs"
"/Users/simen/1617-WDAD4-GR12-copy/dotnet/src/Accomo.Models/Huisregel.cs"
"/Users/simen/1617-WDAD4-GR12-copy/dotnet/src/Accomo.Models/Korting.cs"
"/Users/simen/1617-WDAD4-GR12-copy/dotnet/src/Accomo.Models/MediaType.cs"
"/Users/simen/1617-WDAD4-GR12-copy/dotnet/src/Accomo.Models/Transactie.cs"
"/Users/simen/1617-WDAD4-GR12-copy/dotnet/src/Accomo.Models/Valuta.cs"
"/Users/simen/1617-WDAD4-GR12-copy/dotnet/src/Accomo.Models/Veiligheidsvoorziening.cs"
"/Users/simen/1617-WDAD4-GR12-copy/dotnet/src/Accomo.Models/VoorzieningType.cs"
"/Users/simen/1617-WDAD4-GR12-copy/dotnet/src/Accomo.Models/Wishlist.cs"
"/Users/simen/1617-WDAD4-GR12-copy/dotnet/src/Accomo.Models/Metadata/versionHistory.cs"
"/Users/simen/1617-WDAD4-GR12-copy/dotnet/src/Accomo.Models/Security/ApplicationRole.cs"
"/Users/simen/1617-WDAD4-GR12-copy/dotnet/src/Accomo.Models/Security/ApplicationUser.cs"
"/Users/simen/1617-WDAD4-GR12-copy/dotnet/src/Accomo.Models/Utilities/ActionType.cs"
"/Users/simen/1617-WDAD4-GR12-copy/dotnet/src/Accomo.Models/Utilities/Alert.cs"
"/Users/simen/1617-WDAD4-GR12-copy/dotnet/src/Accomo.Models/ViewModels/AccomodatieLocatieViewModel.cs"
"/Users/simen/1617-WDAD4-GR12-copy/dotnet/src/Accomo.Models/ViewModels/AccomodatieTypeViewModel.cs"
"/Users/simen/1617-WDAD4-GR12-copy/dotnet/src/Accomo.Models/ViewModels/AccomodatieViewModel.cs"
"/Users/simen/1617-WDAD4-GR12-copy/dotnet/src/Accomo.Models/ViewModels/ActionAccomodatieLocatieViewModel.cs"
"/Users/simen/1617-WDAD4-GR12-copy/dotnet/src/Accomo.Models/ViewModels/ActionAccomodatieTypeViewModel.cs"
"/Users/simen/1617-WDAD4-GR12-copy/dotnet/src/Accomo.Models/ViewModels/ActionAccomodatieViewModel.cs"
"/Users/simen/1617-WDAD4-GR12-copy/dotnet/src/Accomo.Models/ViewModels/ActionBedTypeViewModel.cs"
"/Users/simen/1617-WDAD4-GR12-copy/dotnet/src/Accomo.Models/ViewModels/ActionBoekingViewModel.cs"
"/Users/simen/1617-WDAD4-GR12-copy/dotnet/src/Accomo.Models/ViewModels/ActionCategorieViewModel.cs"
"/Users/simen/1617-WDAD4-GR12-copy/dotnet/src/Accomo.Models/ViewModels/ActionHuisregelViewModel.cs"
"/Users/simen/1617-WDAD4-GR12-copy/dotnet/src/Accomo.Models/ViewModels/ActionKortingViewModel.cs"
"/Users/simen/1617-WDAD4-GR12-copy/dotnet/src/Accomo.Models/ViewModels/ActionMediaTypeViewModel.cs"
"/Users/simen/1617-WDAD4-GR12-copy/dotnet/src/Accomo.Models/ViewModels/ActionReviewViewModel.cs"
"/Users/simen/1617-WDAD4-GR12-copy/dotnet/src/Accomo.Models/ViewModels/ActionRoleViewModel.cs"
"/Users/simen/1617-WDAD4-GR12-copy/dotnet/src/Accomo.Models/ViewModels/ActionTransactieViewModel.cs"
"/Users/simen/1617-WDAD4-GR12-copy/dotnet/src/Accomo.Models/ViewModels/ActionVeiligheidsvoorzieningViewModel.cs"
"/Users/simen/1617-WDAD4-GR12-copy/dotnet/src/Accomo.Models/ViewModels/ActionViewModel.cs"
"/Users/simen/1617-WDAD4-GR12-copy/dotnet/src/Accomo.Models/ViewModels/ActionVoorzieningTypeViewModel.cs"
"/Users/simen/1617-WDAD4-GR12-copy/dotnet/src/Accomo.Models/ViewModels/AmountForEntityViewModel.cs"
"/Users/simen/1617-WDAD4-GR12-copy/dotnet/src/Accomo.Models/ViewModels/BedTypeViewModel.cs"
"/Users/simen/1617-WDAD4-GR12-copy/dotnet/src/Accomo.Models/ViewModels/BoekingViewModel.cs"
"/Users/simen/1617-WDAD4-GR12-copy/dotnet/src/Accomo.Models/ViewModels/CategorieViewModel.cs"
"/Users/simen/1617-WDAD4-GR12-copy/dotnet/src/Accomo.Models/ViewModels/HuisregelViewModel.cs"
"/Users/simen/1617-WDAD4-GR12-copy/dotnet/src/Accomo.Models/ViewModels/KortingViewModel.cs"
"/Users/simen/1617-WDAD4-GR12-copy/dotnet/src/Accomo.Models/ViewModels/MediaTypeViewModel.cs"
"/Users/simen/1617-WDAD4-GR12-copy/dotnet/src/Accomo.Models/ViewModels/RoleViewModel.cs"
"/Users/simen/1617-WDAD4-GR12-copy/dotnet/src/Accomo.Models/ViewModels/TransactieViewModel.cs"
"/Users/simen/1617-WDAD4-GR12-copy/dotnet/src/Accomo.Models/ViewModels/UserViewModel.cs"
"/Users/simen/1617-WDAD4-GR12-copy/dotnet/src/Accomo.Models/ViewModels/VeiligheidsvoorzieningViewModel.cs"
"/Users/simen/1617-WDAD4-GR12-copy/dotnet/src/Accomo.Models/ViewModels/VoorzieningTypeViewModel.cs"
"/Users/simen/1617-WDAD4-GR12-copy/dotnet/src/Accomo.Models/ViewModels/AccountViewModels/ExternalLoginConfirmationViewModel.cs"
"/Users/simen/1617-WDAD4-GR12-copy/dotnet/src/Accomo.Models/ViewModels/AccountViewModels/ForgotPasswordViewModel.cs"
"/Users/simen/1617-WDAD4-GR12-copy/dotnet/src/Accomo.Models/ViewModels/AccountViewModels/LoginViewModel.cs"
"/Users/simen/1617-WDAD4-GR12-copy/dotnet/src/Accomo.Models/ViewModels/AccountViewModels/RegisterViewModel.cs"
"/Users/simen/1617-WDAD4-GR12-copy/dotnet/src/Accomo.Models/ViewModels/AccountViewModels/ResetPasswordViewModel.cs"
"/Users/simen/1617-WDAD4-GR12-copy/dotnet/src/Accomo.Models/ViewModels/AccountViewModels/SendCodeViewModel.cs"
"/Users/simen/1617-WDAD4-GR12-copy/dotnet/src/Accomo.Models/ViewModels/AccountViewModels/VerifyCodeViewModel.cs"
